<svg width="741" height="946" viewBox="0 0 741 946" fill="none" xmlns="http://www.w3.org/2000/svg">
<path d="M301.5 432.5C296 293.5 261 290.5 285.5 275.5C320.5 275.5 462 477 500 594C538 711 533.5 764.5 485 863C595.866 764.5 570.66 662.137 559.5 594C540.5 478 405.5 323.5 489 226C559.5 143.68 650.591 159.5 705 226C745.5 275.5 739 327.5 726.5 338C685.525 372.419 683.5 233.532 582.5 217.5C556.383 213.355 487.843 234.611 496 325.5C503 403.5 606.5 530.5 604 690C601.5 849.5 512.999 952.275 381 940.5C274.5 931 210 834 210 744C210 642.658 307 571.5 301.5 432.5Z" fill="#FFBA00" stroke="#010204" stroke-width="9"/>
<path d="M301.5 432.5C296 293.5 261 290.5 285.5 275.5C297.828 275.5 323.369 300.5 352.946 338C343.5 338 325.5 344 322 357C319.434 366.531 363.63 463.777 352.946 584.5C202 679.5 266.222 956.232 421.5 928C473.628 923.233 512.01 905.333 539.845 880.845C579.526 836.678 602.737 770.578 604 690C601.958 604.848 574.897 529.62 547.919 464.248C523.321 408.53 499.251 361.729 496 325.5C495.995 325.44 495.989 325.381 495.984 325.321C489.22 293.509 490.841 265.742 507.5 242C535.346 202.313 617.5 174.5 696.5 291C705 305.5 739.819 314.153 705 226C745.5 275.5 739 327.5 726.5 338C685.525 372.419 683.5 233.532 582.5 217.5C556.401 213.357 487.933 234.583 495.984 325.321C504.473 365.248 526.169 411.545 547.919 464.248C576.278 528.489 605.339 604.584 604 690C611.728 737.183 602.52 825.71 539.845 880.845C500.98 924.106 446.315 946.326 381 940.5C274.5 931 210 834 210 744C210 642.658 307 571.5 301.5 432.5Z" fill="#F37810"/>
<path d="M703.5 224.5C673.5 181 583 131 492.5 219.5C582 180 613.5 171.405 703.5 224.5Z" fill="#FFFBF4"/>
<path d="M416.5 594C462.5 594 498.5 626.5 507.5 669C446.5 594 292 607.5 416.5 594Z" fill="#FFFBF4"/>
<path d="M301.5 432.5C296 293.5 261 290.5 285.5 275.5C320.5 275.5 462 477 500 594C538 711 533.5 764.5 485 863C595.866 764.5 570.66 662.137 559.5 594C540.5 478 405.5 323.5 489 226C559.5 143.68 650.591 159.5 705 226C745.5 275.5 739 327.5 726.5 338C685.525 372.419 683.5 233.532 582.5 217.5C556.383 213.355 487.843 234.611 496 325.5C503 403.5 606.5 530.5 604 690C601.5 849.5 512.999 952.275 381 940.5C274.5 931 210 834 210 744C210 642.658 307 571.5 301.5 432.5Z" stroke="#010204" stroke-width="9"/>
<path d="M279.999 5C267.999 21.5 257.498 57.0713 257.498 81.5713C239.898 76.3713 216.998 73.5 193.498 77.2165C187.498 43.7165 150.998 24.5 135.498 5.5C113.498 31.5 99.9985 95 109.999 125.5C79 158.5 70.4997 210.5 75.4985 243.365C96.9822 384.612 231.935 378.799 379.438 248.168C385.264 243.008 388.807 235.651 389.06 227.872C392.424 124.336 358.449 33.3962 279.999 5Z" fill="#FFBA00" stroke="#010204" stroke-width="9" stroke-linecap="round" stroke-linejoin="round"/>
<path d="M75.4998 241C69.9443 143.94 131.245 83.619 203 76.7898C125 102 91 180.5 105.5 249C121.376 324 157 354 288 315C118 405 83 287 75.4998 241Z" fill="#F37810"/>
<path d="M388.499 240C394.999 131.5 361.499 34.5 279.999 5C346.5 66.5 357.5 151.5 360 245.168C358 257.5 353.5 262.5 344.5 277C361 266 384.5 244 388.499 240Z" fill="#FFFBF4"/>
<path d="M166 83C162.5 58 135.499 20 135.499 5.5C150.92 24.4036 187.129 43.5215 193.405 76.7076C193.933 76.725 194.011 76.8818 193.499 77.2165C193.468 77.0465 193.437 76.8769 193.405 76.7076C190.328 76.6063 171.974 81.2323 166 83Z" fill="#FFFBF4"/>
<path d="M224.5 132.5C269 146.553 268.194 219.156 214.5 229C154.5 240 180 118.447 224.5 132.5Z" fill="#FFFBF4"/>
<path d="M317.5 113.5C215 30.0001 67 92.5 75.4998 241" stroke="#010204" stroke-width="9" stroke-linecap="round" stroke-linejoin="round"/>
<path d="M110 124.5C100 94 113.5 30.5 135.5 4.5C151 23.5 187.5 43.5 193.5 77" stroke="#010204" stroke-width="9" stroke-linecap="round" stroke-linejoin="round"/>
<path d="M279.999 5C267.999 21.5 257.498 57.0713 257.498 81.5713C239.898 76.3713 216.998 73.5 193.498 77.2165C187.498 43.7165 150.998 24.5 135.498 5.5C113.498 31.5 99.9985 95 109.999 125.5C79 158.5 70.4997 210.5 75.4985 243.365C96.9822 384.612 231.935 378.799 379.438 248.168C385.264 243.008 388.807 235.651 389.06 227.872C392.424 124.336 358.449 33.3962 279.999 5Z" stroke="#010204" stroke-width="9" stroke-linecap="round" stroke-linejoin="round"/>
<path d="M317 184L452.5 119M340 204.5L452.5 176.5M86.5 157.5L4.5 116.5M76.5 187L10 170.5" stroke="#010204" stroke-width="9" stroke-linecap="round" stroke-linejoin="round"/>
<path d="M220 168C234 170.333 227.5 220.5 211.5 218.5C195.5 216.5 205.999 165.667 220 168Z" fill="#010204"/>
<path d="M163.499 162C177.499 166.5 163.499 217.5 150.999 213C138.5 208.5 149.499 157.5 163.499 162Z" fill="#010204"/>
</svg>
